src/hdl/CTRL.vcd
$date
	Tue May 17 16:53:03 2022
$end
$version
	Icarus Verilog
$end
$timescale
	10ps
$end
$scope module ctrl_tb $end
$var wire 1 ! valid $end
$var wire 7 " dsp_opmode [6:0] $end
$var wire 5 # dsp_inmode [4:0] $end
$var wire 4 $ dsp_alumode [3:0] $end
$var wire 1 % busy $end
$var wire 4 & bram1_web [3:0] $end
$var wire 1 ' bram1_enb $end
$var wire 10 ( bram1_addrb [9:0] $end
$var wire 1 ) bram0_enb $end
$var wire 10 * bram0_addrb [9:0] $end
$var reg 1 + clk $end
$var reg 32 , inst [31:0] $end
$var reg 1 - rst_n $end
$var reg 1 . start $end
$scope module c1 $end
$var wire 1 + clk $end
$var wire 32 / inst [31:0] $end
$var wire 1 - rst_n $end
$var wire 1 . start $end
$var wire 1 ! valid $end
$var wire 1 % busy $end
$var reg 10 0 bram0_addrb [9:0] $end
$var reg 1 ) bram0_enb $end
$var reg 10 1 bram1_addrb [9:0] $end
$var reg 1 ' bram1_enb $end
$var reg 4 2 bram1_web [3:0] $end
$var reg 2 3 cnt [1:0] $end
$var reg 3 4 cs [2:0] $end
$var reg 4 5 dsp_alumode [3:0] $end
$var reg 5 6 dsp_inmode [4:0] $end
$var reg 7 7 dsp_opmode [6:0] $end
$var reg 31 8 inst_reg [30:0] $end
$var reg 3 9 ns [2:0] $end
$upscope $end
$upscope $end
$enddefinitions $end
#0
$dumpvars
b0 9
bx 8
bx 7
bx 6
bx 5
bx 4
bx 3
bx 2
bx 1
bx 0
b0 /
0.
0-
b0 ,
0+
bx *
x)
bx (
x'
bx &
x%
bx $
bx #
bx "
x!
$end
#500
b0 $
b0 5
b0 "
b0 7
b0 #
b0 6
0'
b0 &
b0 2
b0 (
b0 1
0)
b0 *
b0 0
b0 8
0%
0!
b0 4
b0 3
1+
#1000
0+
#1300
1-
#1500
1+
#2000
0+
#2300
b1 9
b10000000010110001000110001000000 ,
b10000000010110001000110001000000 /
1.
#2500
1)
1'
b10 (
b10 1
b10 9
b10110001000110001000000 8
1%
b1 4
1+
#3000
0+
#3300
0.
#3500
b101 "
b101 7
b10001 #
b10001 6
0'
b0 (
b0 1
0)
b10 4
1+
#4000
0+
#4500
b1 3
1+
#5000
0+
#5500
b11 9
b10 3
1+
#6000
0+
#6500
b1111 &
b1111 2
b11 (
b11 1
b0 "
b0 7
b0 #
b0 6
b100 9
b11 4
b0 3
1+
#7000
0+
#7500
b0 &
b0 2
b0 (
b0 1
b0 9
1!
b100 4
1+
#8000
0+
#8500
0%
0!
b0 4
1+
